{
  "type": "object",
  "properties" : {
    "id": { "type": "integer" },
    "relative_position": { "type": "integer" },
    "issue": { "type": "object" },
    "epic": {
      "type": "object",
      "required": [
        "id",
        "iid",
        "title"
      ],
      "properties": {
        "id": { "type": "integer" },
        "iid": { "type": "integer" },
        "title": { "type": "string" },
        "group_id": { "type": "integer" },
        "description": { "type": ["string", "null"] },
        "author": { "type": ["object", "null"] },
        "start_date": { "type": ["date", "null"] },
        "start_date_fixed": { "type": ["date", "null"] },
        "start_date_from_milestones": { "type": ["date", "null"] },
        "start_date_is_fixed": { "type": "boolean" },
        "end_date": { "type": ["date", "null"] },
        "due_date": { "type": ["date", "null"] },
        "due_date_fixed": { "type": ["date", "null"] },
        "due_date_from_milestones": { "type": ["date", "null"] },
        "due_date_is_fixed": { "type": "boolean" },
        "created_at": { "type": ["string", "null"] },
        "updated_at": { "type": ["string", "null"] },
        "labels": {
          "type": "array",
          "items": {
            "type": "string"
          }
        }
      },
      "additionalProperties": false
    },
    "issue": {
       "allOf": [
        { "$ref": "../../../../../../../spec/fixtures/api/schemas/public_api/v4/issue.json" },
          {
            "properties": {
              "weight": { "type": ["integer", "null"] }
            }
          }
        ]
     }
  },
  "required" : [ "id", "epic", "issue", "relative_position" ],
  "additionalProperties": false
}
